<svg width="25" height="25" viewBox="0 0 25 25" fill="none" xmlns="http://www.w3.org/2000/svg">
<path d="M22.8879 24.282C22.6162 24.2843 22.3515 24.2103 22.1363 24.072L12.0872 17.5514L2.0201 24.072C1.84293 24.1876 1.63023 24.2593 1.40642 24.2788C1.1826 24.2983 0.956722 24.2648 0.754699 24.1822C0.552677 24.0996 0.382685 23.9712 0.26423 23.8118C0.145774 23.6524 0.0836488 23.4684 0.084982 23.2809V3.28391C0.084982 2.48833 0.464295 1.72534 1.13946 1.16278C1.81463 0.600223 2.73037 0.28418 3.6852 0.28418H20.4847C21.4396 0.28418 22.3553 0.600223 23.0305 1.16278C23.7056 1.72534 24.085 2.48833 24.085 3.28391V23.2809C24.0855 23.4122 24.055 23.5423 23.9951 23.6637C23.9352 23.7851 23.8471 23.8955 23.7359 23.9886C23.6247 24.0816 23.4925 24.1554 23.347 24.2057C23.2015 24.2561 23.0455 24.282 22.8879 24.282Z" fill="white"/>
<path d="M11.852 14.5843C11.4898 14.5816 11.1291 14.6797 10.8273 14.8737L10.8255 14.8749L2.74561 20.1182V3.08676C2.74632 2.98594 2.7942 2.8666 2.91891 2.76269C3.04645 2.65642 3.23563 2.58504 3.44803 2.58423H20.2459C20.4583 2.58504 20.6474 2.65642 20.775 2.76269C20.8997 2.86657 20.9475 2.98586 20.9483 3.08666V20.119L12.8546 14.8747L12.8536 14.874C12.5584 14.6838 12.2064 14.5856 11.852 14.5843ZM11.852 14.5843C11.8525 14.5843 11.8529 14.5843 11.8534 14.5843L11.8492 15.0843L11.8507 14.5843C11.8511 14.5843 11.8516 14.5843 11.852 14.5843Z" stroke="#6D2024"/>
</svg>
