<?xml version="1.0" encoding="utf-8"?>
<!-- Generator: Adobe Illustrator 27.9.0, SVG Export Plug-In . SVG Version: 6.00 Build 0)  -->
<svg version="1.1" id="Camada_1" xmlns="http://www.w3.org/2000/svg" xmlns:xlink="http://www.w3.org/1999/xlink" x="0px" y="0px"
	 viewBox="0 0 95 95" style="enable-background:new 0 0 95 95;" xml:space="preserve">
<style type="text/css">
	.st0{fill:#6D1F24;}
	.st1{fill:#145668;}
	.st2{fill:#C62377;}
	.st3{fill:#785054;}
	.st4{fill:#642DA8;}
	.st5{fill:#4BC5A7;}
	.st6{fill:#949ECA;}
	.st7{fill:#697476;}
	.st8{fill:#3C9B53;}
	.st9{fill:#583812;}
</style>
<path class="st2" d="M81,43.1c0,18.5-22.6,34.7-33.5,42.3C35.1,78.5,14,61.6,14,43.1C14,24.6,29,9.6,47.5,9.6S81,24.6,81,43.1z"/>
</svg>
